{
    "count": 8631,
    "first": "https://hubeau.eaufrance.fr/api/v1/hydrometrie/observations_tr?code_entite=A0210050&cursor=&size=5",
    "prev": null,
    "next": "https://hubeau.eaufrance.fr/api/v1/hydrometrie/observations_tr?code_entite=A0210050&cursor=AoJw1ozVxfcCPwxBMDIxMDA1MF9BMDIxMDA1MDUwX1FfNF8yMDIxLTAyLTEwVDA5OjQ1OjAw&size=5",
    "api_version": "1.0.1",
    "data": [
        {
            "code_site": "A0210050",
            "code_station": "A021005050",
            "grandeur_hydro": "H",
            "date_debut_serie": "2021-02-10T00:00:01Z",
            "date_fin_serie": "2021-02-10T10:00:00Z",
            "statut_serie": 4,
            "code_systeme_alti_serie": 31,
            "date_obs": "2021-02-10T10:00:00Z",
            "resultat_obs": 6820.0,
            "code_methode_obs": 0,
            "libelle_methode_obs": "Mesure",
            "code_qualification_obs": 16,
            "libelle_qualification_obs": "Non qualifiée",
            "continuite_obs_hydro": true,
            "longitude": 7.606153158,
            "latitude": 47.556969907
        },
        {
            "code_site": "A0210050",
            "code_station": "A021005050",
            "grandeur_hydro": "Q",
            "date_debut_serie": "2021-02-10T00:00:01Z",
            "date_fin_serie": "2021-02-10T10:00:00Z",
            "statut_serie": 4,
            "code_systeme_alti_serie": 31,
            "date_obs": "2021-02-10T10:00:00Z",
            "resultat_obs": 1744000.0,
            "code_methode_obs": 12,
            "libelle_methode_obs": "Interpolation",
            "code_qualification_obs": 16,
            "libelle_qualification_obs": "Non qualifiée",
            "continuite_obs_hydro": true,
            "longitude": 7.606153158,
            "latitude": 47.556969907
        },
        {
            "code_site": "A0210050",
            "code_station": null,
            "grandeur_hydro": "Q",
            "date_debut_serie": "2021-02-10T00:00:01Z",
            "date_fin_serie": "2021-02-10T10:00:00Z",
            "statut_serie": 4,
            "code_systeme_alti_serie": 31,
            "date_obs": "2021-02-10T10:00:00Z",
            "resultat_obs": 1744000.0,
            "code_methode_obs": 12,
            "libelle_methode_obs": "Interpolation",
            "code_qualification_obs": 16,
            "libelle_qualification_obs": "Non qualifiée",
            "continuite_obs_hydro": true,
            "longitude": 7.606153158,
            "latitude": 47.556969907
        },
        {
            "code_site": "A0210050",
            "code_station": "A021005050",
            "grandeur_hydro": "H",
            "date_debut_serie": "2021-02-10T00:00:01Z",
            "date_fin_serie": "2021-02-10T10:00:00Z",
            "statut_serie": 4,
            "code_systeme_alti_serie": 31,
            "date_obs": "2021-02-10T09:45:00Z",
            "resultat_obs": 6860.0,
            "code_methode_obs": 0,
            "libelle_methode_obs": "Mesure",
            "code_qualification_obs": 16,
            "libelle_qualification_obs": "Non qualifiée",
            "continuite_obs_hydro": true,
            "longitude": 7.606153158,
            "latitude": 47.556969907
        },
        {
            "code_site": "A0210050",
            "code_station": "A021005050",
            "grandeur_hydro": "Q",
            "date_debut_serie": "2021-02-10T00:00:01Z",
            "date_fin_serie": "2021-02-10T10:00:00Z",
            "statut_serie": 4,
            "code_systeme_alti_serie": 31,
            "date_obs": "2021-02-10T09:45:00Z",
            "resultat_obs": 1772000.0,
            "code_methode_obs": 12,
            "libelle_methode_obs": "Interpolation",
            "code_qualification_obs": 16,
            "libelle_qualification_obs": "Non qualifiée",
            "continuite_obs_hydro": true,
            "longitude": 7.606153158,
            "latitude": 47.556969907
        }
    ]
}
