{
    "count": 354,
    "first": "https://hubeau.eaufrance.fr/api/vbeta/hydrobio/stations_hydrobio?code_departement=74&page=1&size=5",
    "last": "https://hubeau.eaufrance.fr/api/vbeta/hydrobio/stations_hydrobio?code_departement=74&page=71&size=5",
    "prev": null,
    "next": "https://hubeau.eaufrance.fr/api/vbeta/hydrobio/stations_hydrobio?code_departement=74&page=2&size=5",
    "api_version": "0.1.1",
    "data": [
        {
            "code_station_hydrobio": "06000266",
            "libelle_station_hydrobio": "LE VION A DOUVAINE 1",
            "uri_station_hydrobio": null,
            "coordonnee_x": 953832.0,
            "coordonnee_y": 6585676.0,
            "code_projection": "2154",
            "code_cours_eau": "V0350640",
            "libelle_cours_eau": "Le Vion",
            "uri_cours_eau": null,
            "code_masse_eau": "DR10616",
            "libelle_masse_eau": "ruisseau le vion",
            "uri_masse_eau": null,
            "code_sous_bassin": "FRD_HRHO",
            "libelle_sous_bassin": "Haut Rhône",
            "code_bassin": "D",
            "libelle_bassin": "Le Rhône et les cours d'eau côtiers méditerranéens",
            "code_commune": "74105",
            "libelle_commune": "Douvaine",
            "code_departement": "74",
            "libelle_departement": "HAUTE-SAVOIE",
            "code_region": "84",
            "libelle_region": "AUVERGNE-RHONE-ALPES",
            "codes_reseaux": null,
            "libelles_reseaux": null,
            "codes_supports": [
                "10",
                "13"
            ],
            "libelles_supports": [
                "Diatomées benthiques",
                "Macroinvertébrés aquatiques"
            ],
            "codes_appel_taxons": [
                "7076",
                "43146",
                "32078",
                "9360",
                "6722",
                "6679",
                "9445",
                "13813",
                "11432",
                "8944",
                "7732",
                "14132",
                "16490",
                "8820",
                "8420",
                "7874",
                "14114",
                "8875",
                "8393",
                "728",
                "933",
                "908",
                "972",
                "1009",
                "997",
                "1004",
                "1043",
                "1044",
                "1042",
                "3206",
                "3127",
                "892",
                "880",
                "2611",
                "807",
                "518",
                "625",
                "735",
                "928",
                "3170",
                "699",
                "757",
                "709",
                "387",
                "704",
                "837",
                "796",
                "2393",
                "2395",
                "27741",
                "8866",
                "8833",
                "7116",
                "1071",
                "994"
            ],
            "libelles_appel_taxons": [
                "Achnanthidium minutissimum",
                "Sellaphora nigri",
                "Ulnaria acus",
                "Planothidium",
                "Fragilaria vaucheriae",
                "Fragilaria gracilis",
                "Sellaphora",
                "Gomphonema cuneolus",
                "Cymbella affinis var. affinis",
                "Nitzschia lacuum",
                "Gomphonema truncatum",
                "Gomphonema pumilum var. rigidum",
                "Nitzschia solgensis",
                "Nitzschia amphibia",
                "Rhoicosphenia abbreviata",
                "Navicula cryptocephala",
                "Gomphonema parvulum var. parvulum f. parvulum",
                "Nitzschia dissipata",
                "Planothidium frequentissimum",
                "Notonectidae",
                "Oligochaeta",
                "Glossiphoniidae",
                "Valvata",
                "Planorbidae",
                "Physa lato-sensu",
                "Radix",
                "Pisidium",
                "Sphaerium",
                "Sphaeriidae",
                "Copepoda",
                "Cladocera",
                "Gammarus",
                "Asellidae",
                "Chalcolestes",
                "Chironomidae",
                "Haliplus",
                "Riolus",
                "Gerris",
                "Erpobdellidae",
                "Ostracoda",
                "Sympetrum",
                "Limoniidae",
                "Corixidae",
                "Cloeon",
                "Sialis",
                "Tabanidae",
                "Culicidae",
                "Hydroporinae",
                "Colymbetinae",
                "Fragilaria pectinalis",
                "Nitzschia denticula",
                "Nitzschia archibaldii",
                "Amphora pediculus",
                "Dendrocoelidae",
                "Bithynia"
            ],
            "codes_indices": [
                "5856",
                "7613",
                "5910",
                "6034",
                "6035"
            ],
            "libelles_indices": [
                "IBD",
                "I2M2",
                "MPCE A+B",
                "MPCE V A+B",
                "MPCE G A+B"
            ],
            "latitude": 46.3232479406412,
            "longitude": 6.30012205753929,
            "geometry": {
                "type": "Point",
                "crs": {
                    "type": "name",
                    "properties": {
                        "name": "urn:ogc:def:crs:OGC:1.3:CRS84"
                    }
                },
                "coordinates": [
                    6.30012205753929,
                    46.3232479406412
                ]
            },
            "date_premier_prelevement": "2019-07-03",
            "date_dernier_prelevement": "2019-07-03"
        },
        {
            "code_station_hydrobio": "06059990",
            "libelle_station_hydrobio": "ARVE A CHAMONIX-MONT-BLANC 5",
            "uri_station_hydrobio": null,
            "coordonnee_x": 1004032.0,
            "coordonnee_y": 6550830.0,
            "code_projection": "2154",
            "code_cours_eau": "V0--0200",
            "libelle_cours_eau": "L'Arve",
            "uri_cours_eau": null,
            "code_masse_eau": "DR566a",
            "libelle_masse_eau": null,
            "uri_masse_eau": null,
            "code_sous_bassin": null,
            "libelle_sous_bassin": null,
            "code_bassin": null,
            "libelle_bassin": null,
            "code_commune": "74056",
            "libelle_commune": "Chamonix-Mont-Blanc",
            "code_departement": "74",
            "libelle_departement": "HAUTE-SAVOIE",
            "code_region": "84",
            "libelle_region": "AUVERGNE-RHONE-ALPES",
            "codes_reseaux": null,
            "libelles_reseaux": null,
            "codes_supports": [
                "10",
                "13"
            ],
            "libelles_supports": [
                "Diatomées benthiques",
                "Macroinvertébrés aquatiques"
            ],
            "codes_appel_taxons": null,
            "libelles_appel_taxons": null,
            "codes_indices": [
                "1080",
                "1000",
                "1001",
                "1002"
            ],
            "libelles_indices": [
                "IBD 2000",
                "IBGN",
                "Som(t)IBGN",
                "GI IBGN"
            ],
            "latitude": 45.9891048645405,
            "longitude": 6.9292636778015,
            "geometry": {
                "type": "Point",
                "crs": {
                    "type": "name",
                    "properties": {
                        "name": "urn:ogc:def:crs:OGC:1.3:CRS84"
                    }
                },
                "coordinates": [
                    6.9292636778015,
                    45.9891048645405
                ]
            },
            "date_premier_prelevement": "2002-01-30",
            "date_dernier_prelevement": "2002-11-27"
        },
        {
            "code_station_hydrobio": "06059995",
            "libelle_station_hydrobio": "ARVE A CHAMONIX-MONT-BLANC 1",
            "uri_station_hydrobio": null,
            "coordonnee_x": 997049.0,
            "coordonnee_y": 6541155.0,
            "code_projection": "2154",
            "code_cours_eau": "V0--0200",
            "libelle_cours_eau": "L'Arve",
            "uri_cours_eau": null,
            "code_masse_eau": "DR566a",
            "libelle_masse_eau": null,
            "uri_masse_eau": null,
            "code_sous_bassin": null,
            "libelle_sous_bassin": null,
            "code_bassin": null,
            "libelle_bassin": null,
            "code_commune": "74056",
            "libelle_commune": "Chamonix-Mont-Blanc",
            "code_departement": "74",
            "libelle_departement": "HAUTE-SAVOIE",
            "code_region": "84",
            "libelle_region": "AUVERGNE-RHONE-ALPES",
            "codes_reseaux": null,
            "libelles_reseaux": null,
            "codes_supports": [
                "10",
                "13"
            ],
            "libelles_supports": [
                "Diatomées benthiques",
                "Macroinvertébrés aquatiques"
            ],
            "codes_appel_taxons": [
                "7076",
                "6722",
                "10603",
                "6642",
                "10597",
                "6624",
                "7435",
                "66",
                "3111",
                "831",
                "807",
                "364",
                "140",
                "69",
                "933",
                "783",
                "757",
                "387",
                "212",
                "26",
                "28006",
                "6625",
                "8483",
                "14664",
                "8419",
                "6658",
                "116",
                "1061",
                "892",
                "838",
                "276",
                "887",
                "127",
                "46",
                "7697",
                "6733",
                "7232",
                "12430",
                "14090",
                "32235",
                "13873",
                "6761",
                "10362",
                "9378",
                "8875",
                "115",
                "404",
                "400",
                "421",
                "183",
                "132",
                "3120",
                "7731",
                "906",
                "363",
                "9044",
                "18123",
                "747",
                "7443",
                "801",
                "3163",
                "27741",
                "10854",
                "14060",
                "7116",
                "8833"
            ],
            "libelles_appel_taxons": [
                "Achnanthidium minutissimum",
                "Fragilaria vaucheriae",
                "Achnanthidium lineare",
                "Fragilaria arcus var. arcus",
                "Achnanthidium pyrenaicum",
                "Diatoma mesodon",
                "Encyonema minutum",
                "Leuctridae",
                "Nemathelmintha",
                "Empididae",
                "Chironomidae",
                "Baetis",
                "Isoperla",
                "Leuctra",
                "Oligochaeta",
                "Psychodidae",
                "Limoniidae",
                "Cloeon",
                "Hydropsyche",
                "Nemoura",
                "Nitzschia puriformis",
                "Diatoma moniliformis",
                "Surirella angusta",
                "Mayamaea permitis",
                "Reimeria sinuata",
                "Fragilaria capucina var. vaucheriae",
                "Capnia",
                "Planariidae",
                "Gammarus",
                "Athericidae",
                "Limnephilidae",
                "Gammaridae",
                "Perlodidae",
                "Protonemura",
                "Gomphonema olivaceoides",
                "Hannaea arcus",
                "Cocconeis placentula var. lineata",
                "Diatoma hyemale var. maximum",
                "Gomphonema variostigmatum",
                "Abnormal diatom valve",
                "Gomphonema elegans",
                "Staurosira construens",
                "Achnanthidium atomoides",
                "Encyonema",
                "Nitzschia dissipata",
                "Capniidae",
                "Rhithrogena",
                "Epeorus",
                "Ecdyonurus",
                "Rhyacophila lato-sensu",
                "Dictyogenus",
                "Drusinae",
                "Gomphonema tergestinum",
                "Hydracarina",
                "Baetidae",
                "Nitzschia sublinearis",
                "Reimeria uniseriata",
                "Blephariceridae",
                "Encyonema silesiacum",
                "Simuliidae",
                "Limnephilinae",
                "Fragilaria pectinalis",
                "Achnanthidium subatomus",
                "Gomphonema olivaceum",
                "Amphora pediculus",
                "Nitzschia archibaldii"
            ],
            "codes_indices": [
                "5856",
                "7613",
                "5910",
                "6034",
                "6035",
                "1003",
                "1004",
                "1005",
                "1080",
                "1000",
                "1001",
                "1002"
            ],
            "libelles_indices": [
                "IBD",
                "I2M2",
                "MPCE A+B",
                "MPCE V A+B",
                "MPCE G A+B",
                "IBG",
                "Som(t)IBG",
                "GI IBG",
                "IBD 2000",
                "IBGN",
                "Som(t)IBGN",
                "GI IBGN"
            ],
            "latitude": 45.9051769177255,
            "longitude": 6.83309504704546,
            "geometry": {
                "type": "Point",
                "crs": {
                    "type": "name",
                    "properties": {
                        "name": "urn:ogc:def:crs:OGC:1.3:CRS84"
                    }
                },
                "coordinates": [
                    6.83309504704546,
                    45.9051769177255
                ]
            },
            "date_premier_prelevement": "1990-11-15",
            "date_dernier_prelevement": "2019-02-05"
        },
        {
            "code_station_hydrobio": "06060000",
            "libelle_station_hydrobio": "ARVE A LES-HOUCHES 1",
            "uri_station_hydrobio": null,
            "coordonnee_x": 992131.0,
            "coordonnee_y": 6542510.0,
            "code_projection": "2154",
            "code_cours_eau": "V0--0200",
            "libelle_cours_eau": "L'Arve",
            "uri_cours_eau": null,
            "code_masse_eau": "DR566d",
            "libelle_masse_eau": null,
            "uri_masse_eau": null,
            "code_sous_bassin": null,
            "libelle_sous_bassin": null,
            "code_bassin": null,
            "libelle_bassin": null,
            "code_commune": "74143",
            "libelle_commune": "Les Houches",
            "code_departement": "74",
            "libelle_departement": "HAUTE-SAVOIE",
            "code_region": "84",
            "libelle_region": "AUVERGNE-RHONE-ALPES",
            "codes_reseaux": [
                "0000000076",
                "0000000001",
                "0000000002"
            ],
            "libelles_reseaux": [
                "0000000076%%Réseau de surveillance des nitrates dans les eaux superficielles françaises",
                "0000000001%%Réseau National de Bassin de suivi de la qualité des eaux superficielles",
                "0000000002%%Réseau Hydrobiologique et Piscicole"
            ],
            "codes_supports": [
                "4",
                "13",
                "10"
            ],
            "libelles_supports": [
                "Poissons",
                "Macroinvertébrés aquatiques",
                "Diatomées benthiques"
            ],
            "codes_appel_taxons": [
                "2221",
                "933",
                "807",
                "66",
                "69",
                "364",
                "831",
                "757",
                "847",
                "7435",
                "11037",
                "6642",
                "6625",
                "14664",
                "10597",
                "6624",
                "8419",
                "14001",
                "8114",
                "8992",
                "13689",
                "8875",
                "7881",
                "10372",
                "7948",
                "7995",
                "7076",
                "1089",
                "26",
                "783",
                "11785",
                "7701",
                "11662",
                "8987",
                "183",
                "3111",
                "46",
                "140",
                "239",
                "3206",
                "32379",
                "10603",
                "7232",
                "10362",
                "6631",
                "3127",
                "7731",
                "9044",
                "8934",
                "801",
                "3163",
                "7171",
                "7697",
                "13106",
                "9014",
                "6658",
                "8955",
                "8492",
                "1061",
                "3106",
                "6706",
                "1055",
                "13873",
                "6849",
                "9533",
                "9419",
                "8719",
                "3",
                "841",
                "276",
                "838",
                "2",
                "10",
                "13638",
                "8154",
                "7074",
                "14763",
                "14132",
                "14114",
                "887",
                "28006",
                "16487",
                "6679",
                "10485",
                "32195",
                "31325",
                "6615",
                "7426",
                "8615",
                "9804",
                "212",
                "2395",
                "28324",
                "8206",
                "8190",
                "116",
                "753",
                "11981",
                "6722",
                "10468",
                "9421",
                "8781",
                "608",
                "8847",
                "906",
                "9354",
                "363",
                "7116",
                "7443",
                "8833",
                "309",
                "14060",
                "7606",
                "10854",
                "27741"
            ],
            "libelles_appel_taxons": [
                "Salmo trutta fario",
                "Oligochaeta",
                "Chironomidae",
                "Leuctridae",
                "Leuctra",
                "Baetis",
                "Empididae",
                "Limoniidae",
                "Anthomyiidae",
                "Encyonema minutum",
                "Adlafia muralis",
                "Fragilaria arcus var. arcus",
                "Diatoma moniliformis",
                "Mayamaea permitis",
                "Achnanthidium pyrenaicum",
                "Diatoma mesodon",
                "Reimeria sinuata",
                "Gomphonema minutum",
                "Navicula reichardtiana var. reichardtiana",
                "Nitzschia paleacea",
                "Fistulifera saprophila",
                "Nitzschia dissipata",
                "Navicula cryptotenella",
                "Achnanthidium eutrophilum",
                "Navicula gregaria",
                "Navicula lanceolata",
                "Achnanthidium minutissimum",
                "Nematoda",
                "Nemoura",
                "Psychodidae",
                "Cocconeis euglypta",
                "Gomphonema olivaceum var. minutissimum",
                "Cymbella compacta",
                "Nitzschia palea",
                "Rhyacophila lato-sensu",
                "Nemathelmintha",
                "Protonemura",
                "Isoperla",
                "Psychomyia",
                "Copepoda",
                "Adlafia minuscula var. muralis",
                "Achnanthidium lineare",
                "Cocconeis placentula var. lineata",
                "Achnanthidium atomoides",
                "Diatoma vulgare",
                "Cladocera",
                "Gomphonema tergestinum",
                "Nitzschia sublinearis",
                "Nitzschia inconspicua",
                "Simuliidae",
                "Limnephilinae",
                "Caloneis bacillum",
                "Gomphonema olivaceoides",
                "Encyonema ventricosum",
                "Nitzschia pusilla",
                "Fragilaria capucina var. vaucheriae",
                "Nitzschia linearis",
                "Surirella brebissonii var. kuetzingii",
                "Planariidae",
                "Spongillidae",
                "Fragilaria rumpens",
                "Dugesiidae",
                "Gomphonema elegans",
                "Ulnaria ulna",
                "Fragilaria",
                "Eolimna minima",
                "Melosira varians",
                "Brachyptera",
                "Rhagionidae",
                "Limnephilidae",
                "Athericidae",
                "Taeniopterygidae",
                "Rhabdiopteryx",
                "Fistulifera pelliculosa",
                "Navicula splendicula",
                "Achnanthidium catenatum",
                "Meridion circulare var. circulare",
                "Gomphonema pumilum var. rigidum",
                "Gomphonema parvulum var. parvulum f. parvulum",
                "Gammaridae",
                "Nitzschia puriformis",
                "Nitzschia soratensis",
                "Fragilaria gracilis",
                "Adlafia minuscula",
                "Psammothidium daonense",
                "Psammothidium bioretii",
                "Diatoma ehrenbergii",
                "Encyonema caespitosum",
                "Cyclotella costei",
                "Nitzschia",
                "Hydropsyche",
                "Colymbetinae",
                "Fragilaria austriaca",
                "Navicula veneta",
                "Navicula tripunctata",
                "Capnia",
                "Tipulidae",
                "Caloneis lancettula",
                "Fragilaria vaucheriae",
                "Cocconeis pseudolineata",
                "Geissleria acceptata",
                "Gomphonema",
                "Hydraena",
                "Nitzschia capitellata",
                "Hydracarina",
                "Achnanthes",
                "Baetidae",
                "Amphora pediculus",
                "Encyonema silesiacum",
                "Nitzschia archibaldii",
                "Crunoecia",
                "Gomphonema olivaceum",
                "Geissleria decussis",
                "Achnanthidium subatomus",
                "Fragilaria pectinalis"
            ],
            "codes_indices": [
                "7036",
                "7787",
                "7786",
                "7746",
                "7745",
                "7744",
                "7743",
                "7644",
                "7613",
                "5910",
                "6035",
                "6034",
                "5856",
                "1003",
                "1004",
                "1005",
                "1000",
                "1001",
                "1002",
                "1080"
            ],
            "libelles_indices": [
                "IPR",
                "Score DTI",
                "Score DIT",
                "Score DIO",
                "Score DII",
                "Score NER",
                "Score NEL",
                "Score NTE",
                "I2M2",
                "MPCE A+B",
                "MPCE G A+B",
                "MPCE V A+B",
                "IBD",
                "IBG",
                "Som(t)IBG",
                "GI IBG",
                "IBGN",
                "Som(t)IBGN",
                "GI IBGN",
                "IBD 2000"
            ],
            "latitude": 45.9194958936758,
            "longitude": 6.77056509571165,
            "geometry": {
                "type": "Point",
                "crs": {
                    "type": "name",
                    "properties": {
                        "name": "urn:ogc:def:crs:OGC:1.3:CRS84"
                    }
                },
                "coordinates": [
                    6.77056509571165,
                    45.9194958936758
                ]
            },
            "date_premier_prelevement": "1989-10-12",
            "date_dernier_prelevement": "2019-09-25"
        },
        {
            "code_station_hydrobio": "06060500",
            "libelle_station_hydrobio": "BON NANT A PASSY 1",
            "uri_station_hydrobio": null,
            "coordonnee_x": 986766.0,
            "coordonnee_y": 6541179.0,
            "code_projection": "2154",
            "code_cours_eau": "V0020560",
            "libelle_cours_eau": "Le Bon Nant",
            "uri_cours_eau": null,
            "code_masse_eau": "DR566d",
            "libelle_masse_eau": null,
            "uri_masse_eau": null,
            "code_sous_bassin": null,
            "libelle_sous_bassin": null,
            "code_bassin": null,
            "libelle_bassin": null,
            "code_commune": "74208",
            "libelle_commune": "Passy",
            "code_departement": "74",
            "libelle_departement": "HAUTE-SAVOIE",
            "code_region": "84",
            "libelle_region": "AUVERGNE-RHONE-ALPES",
            "codes_reseaux": null,
            "libelles_reseaux": null,
            "codes_supports": [
                "10",
                "13"
            ],
            "libelles_supports": [
                "Diatomées benthiques",
                "Macroinvertébrés aquatiques"
            ],
            "codes_appel_taxons": null,
            "libelles_appel_taxons": null,
            "codes_indices": [
                "1080",
                "1000",
                "1001",
                "1002",
                "6035",
                "5910",
                "6034"
            ],
            "libelles_indices": [
                "IBD 2000",
                "IBGN",
                "Som(t)IBGN",
                "GI IBGN",
                "MPCE G A+B",
                "MPCE A+B",
                "MPCE V A+B"
            ],
            "latitude": 45.9098084305527,
            "longitude": 6.70061627270381,
            "geometry": {
                "type": "Point",
                "crs": {
                    "type": "name",
                    "properties": {
                        "name": "urn:ogc:def:crs:OGC:1.3:CRS84"
                    }
                },
                "coordinates": [
                    6.70061627270381,
                    45.9098084305527
                ]
            },
            "date_premier_prelevement": "2002-01-31",
            "date_dernier_prelevement": "2007-02-27"
        }
    ]
}
