{
    "count": 30,
    "first": "https://hubeau.eaufrance.fr/api/v1/niveaux_nappes/stations?code_departement=74&format=json&pretty&page=1&size=5",
    "last": "https://hubeau.eaufrance.fr/api/v1/niveaux_nappes/stations?code_departement=74&format=json&pretty&page=6&size=5",
    "prev": null,
    "next": "https://hubeau.eaufrance.fr/api/v1/niveaux_nappes/stations?code_departement=74&format=json&pretty&page=2&size=5",
    "api_version": "1.4.0",
    "data": [
        {
            "code_bss": "06542X0073/SCE1",
            "urn_bss": "http://services.ades.eaufrance.fr/pointeau/06542X0073/SCE1",
            "date_debut_mesure": null,
            "date_fin_mesure": null,
            "code_commune_insee": "74118",
            "nom_commune": "Étrembières",
            "x": 6.225884308,
            "y": 46.177433784,
            "codes_bdlisa": [
                "516AM00"
            ],
            "urns_bdlisa": [
                "http://reseau.eaufrance.fr/geotraitements/bdlisa/files/entite/516AM00.pdf"
            ],
            "geometry": {
                "type": "Point",
                "crs": {
                    "type": "name",
                    "properties": {
                        "name": "urn:ogc:def:crs:OGC:1.3:CRS84"
                    }
                },
                "coordinates": [
                    6.225884308174895,
                    46.17743378350292
                ]
            },
            "bss_id": "BSS001RHYT",
            "altitude_station": "435.0",
            "nb_mesures_piezo": 0,
            "code_departement": "74",
            "nom_departement": "Haute-Savoie",
            "libelle_pe": "SOURCE DES EAUX BELLES",
            "profondeur_investigation": null,
            "codes_masse_eau_edl": [
                "DG511"
            ],
            "noms_masse_eau_edl": [
                "Formations variées de l'Avant-Pays savoyard dans BV du Rhône"
            ],
            "urns_masse_eau_edl": [
                "http://www.sandre.eaufrance.fr/geo/MasseDEauSouterraine/DG511"
            ],
            "date_maj": "Fri Jan 24 16:44:49 CET 2020"
        },
        {
            "code_bss": "06772X0070/F1",
            "urn_bss": "http://services.ades.eaufrance.fr/pointeau/06772X0070/F1",
            "date_debut_mesure": "2014-04-18",
            "date_fin_mesure": "2020-05-31",
            "code_commune_insee": "74291",
            "nom_commune": "Vanzy",
            "x": 5.888589719,
            "y": 46.029328389,
            "codes_bdlisa": [
                "516AK00"
            ],
            "urns_bdlisa": [
                "http://reseau.eaufrance.fr/geotraitements/bdlisa/files/entite/516AK00.pdf"
            ],
            "geometry": {
                "type": "Point",
                "crs": {
                    "type": "name",
                    "properties": {
                        "name": "urn:ogc:def:crs:OGC:1.3:CRS84"
                    }
                },
                "coordinates": [
                    5.88858971905846,
                    46.02932838898817
                ]
            },
            "bss_id": "BSS001SDXL",
            "altitude_station": "315.0",
            "nb_mesures_piezo": 1929,
            "code_departement": "74",
            "nom_departement": "Haute-Savoie",
            "libelle_pe": null,
            "profondeur_investigation": 26.0,
            "codes_masse_eau_edl": [
                "DG511"
            ],
            "noms_masse_eau_edl": [
                "Formations variées de l'Avant-Pays savoyard dans BV du Rhône"
            ],
            "urns_masse_eau_edl": [
                "http://www.sandre.eaufrance.fr/geo/MasseDEauSouterraine/DG511"
            ],
            "date_maj": "Fri Jan 24 16:44:49 CET 2020"
        },
        {
            "code_bss": "07022X0053/F1",
            "urn_bss": "http://services.ades.eaufrance.fr/pointeau/07022X0053/F1",
            "date_debut_mesure": "2004-01-01",
            "date_fin_mesure": "2020-04-22",
            "code_commune_insee": "74027",
            "nom_commune": "Balme-de-Thuy",
            "x": 6.267500626,
            "y": 45.895991204,
            "codes_bdlisa": [
                "710CA11"
            ],
            "urns_bdlisa": [
                "http://reseau.eaufrance.fr/geotraitements/bdlisa/files/entite/710CA11.pdf"
            ],
            "geometry": {
                "type": "Point",
                "crs": {
                    "type": "name",
                    "properties": {
                        "name": "urn:ogc:def:crs:OGC:1.3:CRS84"
                    }
                },
                "coordinates": [
                    6.26750062649614,
                    45.8959912041012
                ]
            },
            "bss_id": "BSS001TVTT",
            "altitude_station": "560.0",
            "nb_mesures_piezo": 5691,
            "code_departement": "74",
            "nom_departement": "Haute-Savoie",
            "libelle_pe": "PIEZOMETRE N°1",
            "profondeur_investigation": 22.5,
            "codes_masse_eau_edl": [
                "DG112"
            ],
            "noms_masse_eau_edl": [
                "Calcaires et marnes du massif des Bornes et des Aravis"
            ],
            "urns_masse_eau_edl": [
                "http://www.sandre.eaufrance.fr/geo/MasseDEauSouterraine/DG112"
            ],
            "date_maj": "Fri Jan 24 16:44:49 CET 2020"
        },
        {
            "code_bss": "06552X0014/F1",
            "urn_bss": "http://services.ades.eaufrance.fr/pointeau/06552X0014/F1",
            "date_debut_mesure": "2006-02-14",
            "date_fin_mesure": "2020-05-31",
            "code_commune_insee": "74114",
            "nom_commune": "Essert-Romand",
            "x": 6.671209421,
            "y": 46.201612994,
            "codes_bdlisa": [
                "712EA03"
            ],
            "urns_bdlisa": [
                "http://reseau.eaufrance.fr/geotraitements/bdlisa/files/entite/712EA03.pdf"
            ],
            "geometry": {
                "type": "Point",
                "crs": {
                    "type": "name",
                    "properties": {
                        "name": "urn:ogc:def:crs:OGC:1.3:CRS84"
                    }
                },
                "coordinates": [
                    6.6712094209361075,
                    46.20161299362999
                ]
            },
            "bss_id": "BSS001RKDL",
            "altitude_station": "930.0",
            "nb_mesures_piezo": 4874,
            "code_departement": "74",
            "nom_departement": "Haute-Savoie",
            "libelle_pe": "F1",
            "profondeur_investigation": 66.0,
            "codes_masse_eau_edl": [
                "DG408"
            ],
            "noms_masse_eau_edl": [
                "Domaine plissé du Chablais et Faucigny  - BV Arve et Dranse"
            ],
            "urns_masse_eau_edl": [
                "http://www.sandre.eaufrance.fr/geo/MasseDEauSouterraine/DG408"
            ],
            "date_maj": "Tue Apr 07 07:32:09 CEST 2020"
        },
        {
            "code_bss": "06781X0054/F1",
            "urn_bss": "http://services.ades.eaufrance.fr/pointeau/06781X0054/F1",
            "date_debut_mesure": "2004-01-01",
            "date_fin_mesure": "2020-05-31",
            "code_commune_insee": "74137",
            "nom_commune": "Groisy",
            "x": 6.19149663,
            "y": 46.002381161,
            "codes_bdlisa": [
                "516AK00"
            ],
            "urns_bdlisa": [
                "http://reseau.eaufrance.fr/geotraitements/bdlisa/files/entite/516AK00.pdf"
            ],
            "geometry": {
                "type": "Point",
                "crs": {
                    "type": "name",
                    "properties": {
                        "name": "urn:ogc:def:crs:OGC:1.3:CRS84"
                    }
                },
                "coordinates": [
                    6.19149663013958,
                    46.0023811614286
                ]
            },
            "bss_id": "BSS001SEZW",
            "altitude_station": "555.0",
            "nb_mesures_piezo": 5627,
            "code_departement": "74",
            "nom_departement": "Haute-Savoie",
            "libelle_pe": "PIEZOMETRE DE DOLLAY",
            "profondeur_investigation": 39.0,
            "codes_masse_eau_edl": [
                "DG511"
            ],
            "noms_masse_eau_edl": [
                "Formations variées de l'Avant-Pays savoyard dans BV du Rhône"
            ],
            "urns_masse_eau_edl": [
                "http://www.sandre.eaufrance.fr/geo/MasseDEauSouterraine/DG511"
            ],
            "date_maj": "Fri Jan 24 16:44:49 CET 2020"
        }
    ]
}
