{
    "count": 30,
    "first": "https://hubeau.eaufrance.fr/api/v1/niveaux_nappes/stations?code_departement=74&format=json&pretty&page=1&size=5",
    "last": "https://hubeau.eaufrance.fr/api/v1/niveaux_nappes/stations?code_departement=74&format=json&pretty&page=6&size=5",
    "prev": null,
    "next": "https://hubeau.eaufrance.fr/api/v1/niveaux_nappes/stations?code_departement=74&format=json&pretty&page=2&size=5",
    "api_version": "1.4.0",
    "data": [
        {
            "code_bss": "06772X0070/F1",
            "urn_bss": "http://services.ades.eaufrance.fr/pointeau/06772X0070/F1",
            "date_debut_mesure": "2014-04-18",
            "date_fin_mesure": "2020-05-31",
            "code_commune_insee": "74291",
            "nom_commune": "Vanzy",
            "x": 5.888589719,
            "y": 46.029328389,
            "codes_bdlisa": [
                "516AK00"
            ],
            "urns_bdlisa": [
                "http://reseau.eaufrance.fr/geotraitements/bdlisa/files/entite/516AK00.pdf"
            ],
            "geometry": {
                "type": "Point",
                "crs": {
                    "type": "name",
                    "properties": {
                        "name": "urn:ogc:def:crs:OGC:1.3:CRS84"
                    }
                },
                "coordinates": [
                    5.88858971905846,
                    46.02932838898817
                ]
            },
            "bss_id": "BSS001SDXL",
            "altitude_station": "315.0",
            "nb_mesures_piezo": 1929,
            "code_departement": "74",
            "nom_departement": "Haute-Savoie",
            "libelle_pe": null,
            "profondeur_investigation": 26.0,
            "codes_masse_eau_edl": [
                "DG511"
            ],
            "noms_masse_eau_edl": [
                "Formations variées de l'Avant-Pays savoyard dans BV du Rhône"
            ],
            "urns_masse_eau_edl": [
                "http://www.sandre.eaufrance.fr/geo/MasseDEauSouterraine/DG511"
            ],
            "date_maj": "Fri Jan 24 16:44:49 CET 2020"
        }
    ]
}
