{
    "count": 511,
    "first": "https://hubeau.eaufrance.fr/api/v1/qualite_rivieres/station_pc?code_departement=74&page=1&size=5",
    "last": "https://hubeau.eaufrance.fr/api/v1/qualite_rivieres/station_pc?code_departement=74&page=103&size=5",
    "prev": null,
    "next": "https://hubeau.eaufrance.fr/api/v1/qualite_rivieres/station_pc?code_departement=74&page=2&size=5",
    "api_version": "1.1.0",
    "data": [
        {
            "code_station": "06007005",
            "libelle_station": "RUISSEAU DES POMMIERS A ANNECY",
            "uri_station": "http://id.eaufrance.fr/STQ/06007005",
            "durete": null,
            "coordonnee_x": 938730.0,
            "coordonnee_y": 6536962.0,
            "code_projection": "26",
            "libelle_projection": "RGF93 / Lambert 93",
            "longitude": 6.07929901,
            "latitude": 45.890434163,
            "code_commune": "74010",
            "libelle_commune": "ANNECY",
            "code_departement": "74",
            "libelle_departement": "HAUTE-SAVOIE",
            "code_region": "84",
            "libelle_region": "AUVERGNE-RHONE-ALPES",
            "code_cours_eau": "V1241450",
            "nom_cours_eau": "Ruisseau du Pommier",
            "uri_cours_eau": "http://id.eaufrance.fr/CEA/V1241450",
            "code_masse_deau": null,
            "code_eu_masse_deau": null,
            "nom_masse_deau": null,
            "uri_masse_deau": null,
            "code_eu_sous_bassin": null,
            "nom_sous_bassin": null,
            "code_bassin": null,
            "code_eu_bassin": null,
            "nom_bassin": null,
            "uri_bassin": null,
            "type_entite_hydro": "2",
            "commentaire": null,
            "date_creation": "2018-02-15",
            "date_arret": null,
            "date_maj_information": "2019-07-08",
            "finalite": null,
            "localisation_precise": "Amont immédiat de la confluence avec le ruisseau de l'Herbe",
            "nature": "M",
            "altitude_point_caracteristique": 505.0,
            "point_kilometrique": null,
            "premier_mois_annee_etiage": null,
            "superficie_bassin_versant_reel": null,
            "superficie_bassin_versant_topo": null,
            "geometry": {
                "type": "Point",
                "crs": {
                    "type": "name",
                    "properties": {
                        "name": "urn:ogc:def:crs:OGC:1.3:CRS84"
                    }
                },
                "coordinates": [
                    6.07929901021823,
                    45.8904341628546
                ]
            }
        },
        {
            "code_station": "06007015",
            "libelle_station": "RUISSEAU DES TROIS FONTAINES A ANNECY 3",
            "uri_station": "http://id.eaufrance.fr/STQ/06007015",
            "durete": null,
            "coordonnee_x": 941840.0,
            "coordonnee_y": 6536829.0,
            "code_projection": "26",
            "libelle_projection": "RGF93 / Lambert 93",
            "longitude": 6.11930468,
            "latitude": 45.888138495,
            "code_commune": "74010",
            "libelle_commune": "ANNECY",
            "code_departement": "74",
            "libelle_departement": "HAUTE-SAVOIE",
            "code_region": "84",
            "libelle_region": "AUVERGNE-RHONE-ALPES",
            "code_cours_eau": "V1230780",
            "nom_cours_eau": "Ruisseau des Trois Fontaines",
            "uri_cours_eau": "http://id.eaufrance.fr/CEA/V1230780",
            "code_masse_deau": "DR11928",
            "code_eu_masse_deau": "FRDR11928",
            "nom_masse_deau": "ruisseau des trois fontaines",
            "uri_masse_deau": "http://id.eaufrance.fr/MDO/DR11928",
            "code_eu_sous_bassin": "FRD_HRHO",
            "nom_sous_bassin": "Haut Rhône",
            "code_bassin": "D",
            "code_eu_bassin": "FRD",
            "nom_bassin": "Le Rhône et les cours d'eau côtiers méditerranéens",
            "uri_bassin": "http://id.eaufrance.fr/SEH/D",
            "type_entite_hydro": "2",
            "commentaire": null,
            "date_creation": "2018-02-15",
            "date_arret": null,
            "date_maj_information": "2019-07-08",
            "finalite": null,
            "localisation_precise": "au niveau de TRIGENIUM",
            "nature": "M",
            "altitude_point_caracteristique": 455.0,
            "point_kilometrique": null,
            "premier_mois_annee_etiage": null,
            "superficie_bassin_versant_reel": null,
            "superficie_bassin_versant_topo": null,
            "geometry": {
                "type": "Point",
                "crs": {
                    "type": "name",
                    "properties": {
                        "name": "urn:ogc:def:crs:OGC:1.3:CRS84"
                    }
                },
                "coordinates": [
                    6.1193046796531,
                    45.8881384949575
                ]
            }
        },
        {
            "code_station": "06007020",
            "libelle_station": "RUISSEAU DES TROIS FONTAINES A ANNECY 4",
            "uri_station": "http://id.eaufrance.fr/STQ/06007020",
            "durete": null,
            "coordonnee_x": 941677.0,
            "coordonnee_y": 6537645.0,
            "code_projection": "26",
            "libelle_projection": "RGF93 / Lambert 93",
            "longitude": 6.117619788,
            "latitude": 45.895538737,
            "code_commune": "74010",
            "libelle_commune": "ANNECY",
            "code_departement": "74",
            "libelle_departement": "HAUTE-SAVOIE",
            "code_region": "84",
            "libelle_region": "AUVERGNE-RHONE-ALPES",
            "code_cours_eau": "V1230780",
            "nom_cours_eau": "Ruisseau des Trois Fontaines",
            "uri_cours_eau": "http://id.eaufrance.fr/CEA/V1230780",
            "code_masse_deau": "DR11928",
            "code_eu_masse_deau": "FRDR11928",
            "nom_masse_deau": "ruisseau des trois fontaines",
            "uri_masse_deau": "http://id.eaufrance.fr/MDO/DR11928",
            "code_eu_sous_bassin": "FRD_HRHO",
            "nom_sous_bassin": "Haut Rhône",
            "code_bassin": "D",
            "code_eu_bassin": "FRD",
            "nom_bassin": "Le Rhône et les cours d'eau côtiers méditerranéens",
            "uri_bassin": "http://id.eaufrance.fr/SEH/D",
            "type_entite_hydro": "2",
            "commentaire": null,
            "date_creation": "2018-02-15",
            "date_arret": null,
            "date_maj_information": "2019-07-08",
            "finalite": null,
            "localisation_precise": "devant le cimetière, en amont de la confluence avec le Thiou",
            "nature": "M",
            "altitude_point_caracteristique": 454.0,
            "point_kilometrique": null,
            "premier_mois_annee_etiage": null,
            "superficie_bassin_versant_reel": null,
            "superficie_bassin_versant_topo": null,
            "geometry": {
                "type": "Point",
                "crs": {
                    "type": "name",
                    "properties": {
                        "name": "urn:ogc:def:crs:OGC:1.3:CRS84"
                    }
                },
                "coordinates": [
                    6.11761978818745,
                    45.8955387369174
                ]
            }
        },
        {
            "code_station": "06007025",
            "libelle_station": "RUISSEAU DE LOVERCHY A ANNECY 2",
            "uri_station": "http://id.eaufrance.fr/STQ/06007025",
            "durete": null,
            "coordonnee_x": 941735.0,
            "coordonnee_y": 6536844.0,
            "code_projection": "26",
            "libelle_projection": "RGF93 / Lambert 93",
            "longitude": 6.11795941,
            "latitude": 45.888310797,
            "code_commune": "74010",
            "libelle_commune": "ANNECY",
            "code_departement": "74",
            "libelle_departement": "HAUTE-SAVOIE",
            "code_region": "84",
            "libelle_region": "AUVERGNE-RHONE-ALPES",
            "code_cours_eau": null,
            "nom_cours_eau": null,
            "uri_cours_eau": null,
            "code_masse_deau": null,
            "code_eu_masse_deau": null,
            "nom_masse_deau": null,
            "uri_masse_deau": null,
            "code_eu_sous_bassin": null,
            "nom_sous_bassin": null,
            "code_bassin": null,
            "code_eu_bassin": null,
            "nom_bassin": null,
            "uri_bassin": null,
            "type_entite_hydro": "2",
            "commentaire": null,
            "date_creation": "2018-02-15",
            "date_arret": null,
            "date_maj_information": "2019-07-08",
            "finalite": null,
            "localisation_precise": "tampon devant garage LAGRANGE, amont confluence avec trois Fontaines",
            "nature": "M",
            "altitude_point_caracteristique": 455.0,
            "point_kilometrique": null,
            "premier_mois_annee_etiage": null,
            "superficie_bassin_versant_reel": null,
            "superficie_bassin_versant_topo": null,
            "geometry": {
                "type": "Point",
                "crs": {
                    "type": "name",
                    "properties": {
                        "name": "urn:ogc:def:crs:OGC:1.3:CRS84"
                    }
                },
                "coordinates": [
                    6.11795941016932,
                    45.8883107970909
                ]
            }
        },
        {
            "code_station": "06059990",
            "libelle_station": "ARVE A CHAMONIX-MONT-BLANC 5",
            "uri_station": "http://id.eaufrance.fr/STQ/06059990",
            "durete": null,
            "coordonnee_x": 1004032.0,
            "coordonnee_y": 6550830.0,
            "code_projection": "26",
            "libelle_projection": "RGF93 / Lambert 93",
            "longitude": 6.929263678,
            "latitude": 45.989104865,
            "code_commune": "74056",
            "libelle_commune": "CHAMONIX-MONT-BLANC",
            "code_departement": "74",
            "libelle_departement": "HAUTE-SAVOIE",
            "code_region": "84",
            "libelle_region": "AUVERGNE-RHONE-ALPES",
            "code_cours_eau": "V0--0200",
            "nom_cours_eau": "L'Arve",
            "uri_cours_eau": "http://id.eaufrance.fr/CEA/V0--0200",
            "code_masse_deau": "DR566a",
            "code_eu_masse_deau": null,
            "nom_masse_deau": null,
            "uri_masse_deau": "http://id.eaufrance.fr/MDO/DR566a",
            "code_eu_sous_bassin": null,
            "nom_sous_bassin": null,
            "code_bassin": null,
            "code_eu_bassin": null,
            "nom_bassin": null,
            "uri_bassin": null,
            "type_entite_hydro": "2",
            "commentaire": null,
            "date_creation": "2004-10-15",
            "date_arret": null,
            "date_maj_information": "2019-07-08",
            "finalite": null,
            "localisation_precise": "Pont Boveray",
            "nature": "M",
            "altitude_point_caracteristique": 1288.0,
            "point_kilometrique": null,
            "premier_mois_annee_etiage": null,
            "superficie_bassin_versant_reel": null,
            "superficie_bassin_versant_topo": null,
            "geometry": {
                "type": "Point",
                "crs": {
                    "type": "name",
                    "properties": {
                        "name": "urn:ogc:def:crs:OGC:1.3:CRS84"
                    }
                },
                "coordinates": [
                    6.9292636778015,
                    45.9891048645405
                ]
            }
        }
    ]
}
